cam.vcd
$date
	Thu Nov 13 21:17:45 2025
$end
$version
	Icarus Verilog
$end
$timescale
	1s
$end
$scope module top_cam $end
$var wire 8 ! data_0 [7:0] $end
$var wire 8 " data_1 [7:0] $end
$var wire 8 # data_2 [7:0] $end
$var wire 8 $ data_3 [7:0] $end
$var wire 8 % data_4 [7:0] $end
$var wire 8 & data_5 [7:0] $end
$var wire 8 ' data_6 [7:0] $end
$var wire 8 ( data_7 [7:0] $end
$var wire 8 ) tag_0 [7:0] $end
$var wire 8 * tag_1 [7:0] $end
$var wire 8 + tag_2 [7:0] $end
$var wire 8 , tag_3 [7:0] $end
$var wire 8 - tag_4 [7:0] $end
$var wire 8 . tag_5 [7:0] $end
$var wire 8 / tag_6 [7:0] $end
$var wire 8 0 tag_7 [7:0] $end
$var wire 1 1 val_7 $end
$var wire 1 2 val_6 $end
$var wire 1 3 val_5 $end
$var wire 1 4 val_4 $end
$var wire 1 5 val_3 $end
$var wire 1 6 val_2 $end
$var wire 1 7 val_1 $end
$var wire 1 8 val_0 $end
$var wire 1 9 found_it $end
$var wire 8 : data [7:0] $end
$var parameter 33 ; ADDR_LEFT $end
$var parameter 32 < BITS $end
$var parameter 32 = TAG_SZ $end
$var parameter 32 > WORDS $end
$var reg 8 ? check_tag [7:0] $end
$var reg 1 @ clk $end
$var reg 8 A new_tag [7:0] $end
$var reg 1 B new_valid $end
$var reg 1 C read $end
$var reg 1 D rst_ $end
$var reg 3 E w_addr [2:0] $end
$var reg 8 F wdata [7:0] $end
$var reg 1 G write_ $end
$scope module cam $end
$var wire 8 H check_tag [7:0] $end
$var wire 1 @ clk $end
$var wire 1 9 found_it $end
$var wire 8 I new_tag [7:0] $end
$var wire 1 B new_valid $end
$var wire 1 C read $end
$var wire 1 D rst_ $end
$var wire 3 J w_addr [2:0] $end
$var wire 8 K wdata [7:0] $end
$var wire 1 G write_ $end
$var wire 8 L data [7:0] $end
$var parameter 33 M ADDR_LEFT $end
$var parameter 32 N BITS $end
$var parameter 32 O INDEX_SIZE $end
$var parameter 32 P TAG_SZ $end
$var parameter 32 Q WORDS $end
$var reg 1 R found $end
$var reg 3 S match_index [2:0] $end
$var reg 8 T val_mem [7:0] $end
$var integer 32 U index [31:0] $end
$upscope $end
$upscope $end
$enddefinitions $end
$comment Show the parameter values. $end
$dumpall
b1000 Q
b1000 P
b1000000 O
b1000 N
b10 M
b1000 >
b1000 =
b1000 <
b10 ;
$end
#0
$dumpvars
b1000 U
b0 T
bx S
xR
bx L
b0 K
b0 J
b1 I
b0 H
1G
b0 F
b0 E
0D
0C
1B
b1 A
0@
b0 ?
bx :
x9
08
07
06
05
04
03
02
01
b0 0
b0 /
b0 .
b0 -
b0 ,
b0 +
b0 *
b0 )
b0 (
b0 '
b0 &
b0 %
b0 $
b0 #
b0 "
b0 !
$end
#10
1D
b1 E
b1 J
b10001 F
b10001 K
b101 A
b101 I
0G
#20
17
b10 T
b101 *
b10001 "
1@
#30
b11 E
b11 J
b10011 F
b10011 K
b110 A
b110 I
0@
#40
15
b1010 T
b110 ,
b10011 $
1@
#50
b101 E
b101 J
b10101 F
b10101 K
b0 A
b0 I
0@
#60
13
b101010 T
b10101 &
1@
#70
b110 E
b110 J
b10110 F
b10110 K
b100 A
b100 I
0@
#80
12
b1101010 T
b100 /
b10110 '
1@
#90
b111 E
b111 J
b10111 F
b10111 K
b1001 A
b1001 I
0@
#100
11
b11101010 T
b1001 0
b10111 (
1@
#110
b0 E
b0 J
b0 F
b0 K
b0 A
b0 I
0B
1C
1G
0@
#120
b1000 U
19
1R
1@
#130
b101 ?
b101 H
0@
#140
b1000 U
19
1R
1@
#150
b110 ?
b110 H
0@
#160
b1000 U
19
1R
1@
#170
b111 ?
b111 H
0@
#180
b1000 U
19
1R
1@
#190
b0 ?
b0 H
0@
#200
b1000 U
19
1R
1@
#210
b100 ?
b100 H
0@
#220
b1000 U
19
1R
1@
#230
b1001 ?
b1001 H
0@
#240
b1000 U
19
1R
1@
#250
b1 ?
b1 H
0@
#260
b1000 U
19
1R
1@
